{
  "page": 1,
  "per_page": 15,
  "photos": [
    {
      "id": 406014,
      "width": 3704,
      "height": 2469,
      "url": "https://www.pexels.com/photo/closeup-photo-of-brown-and-black-dog-face-406014/",
      "photographer": "Lum3n",
      "photographer_url": "https://www.pexels.com/@lum3n-44775",
      "photographer_id": 44775,
      "avg_color": "#CBBFB7",
      "src": {
        "original": "https://images.pexels.com/photos/406014/pexels-photo-406014.jpeg",
        "large2x": "https://images.pexels.com/photos/406014/pexels-photo-406014.jpeg?auto=compress&cs=tinysrgb&dpr=2&h=650&w=940",
        "large": "https://images.pexels.com/photos/406014/pexels-photo-406014.jpeg?auto=compress&cs=tinysrgb&h=650&w=940",
        "medium": "https://images.pexels.com/photos/406014/pexels-photo-406014.jpeg?auto=compress&cs=tinysrgb&h=350",
        "small": "https://images.pexels.com/photos/406014/pexels-photo-406014.jpeg?auto=compress&cs=tinysrgb&h=130",
        "portrait": "https://images.pexels.com/photos/406014/pexels-photo-406014.jpeg?auto=compress&cs=tinysrgb&fit=crop&h=1200&w=800",
        "landscape": "https://images.pexels.com/photos/406014/pexels-photo-406014.jpeg?auto=compress&cs=tinysrgb&fit=crop&h=627&w=1200",
        "tiny": "https://images.pexels.com/photos/406014/pexels-photo-406014.jpeg?auto=compress&cs=tinysrgb&dpr=1&fit=crop&h=200&w=280"
      },
      "liked": false,
      "alt": "Closeup Photo of Brown and Black Dog Face"
    },
    {
      "id": 2023384,
      "width": 1864,
      "height": 2656,
      "url": "https://www.pexels.com/photo/winking-black-and-brown-puppy-2023384/",
      "photographer": "Dominika Roseclay",
      "photographer_url": "https://www.pexels.com/@punchbrandstock",
      "photographer_id": 215243,
      "avg_color": "#C1BBB5",
      "src": {
        "original": "https://images.pexels.com/photos/2023384/pexels-photo-2023384.jpeg",
        "large2x": "https://images.pexels.com/photos/2023384/pexels-photo-2023384.jpeg?auto=compress&cs=tinysrgb&dpr=2&h=650&w=940",
        "large": "https://images.pexels.com/photos/2023384/pexels-photo-2023384.jpeg?auto=compress&cs=tinysrgb&h=650&w=940",
        "medium": "https://images.pexels.com/photos/2023384/pexels-photo-2023384.jpeg?auto=compress&cs=tinysrgb&h=350",
        "small": "https://images.pexels.com/photos/2023384/pexels-photo-2023384.jpeg?auto=compress&cs=tinysrgb&h=130",
        "portrait": "https://images.pexels.com/photos/2023384/pexels-photo-2023384.jpeg?auto=compress&cs=tinysrgb&fit=crop&h=1200&w=800",
        "landscape": "https://images.pexels.com/photos/2023384/pexels-photo-2023384.jpeg?auto=compress&cs=tinysrgb&fit=crop&h=627&w=1200",
        "tiny": "https://images.pexels.com/photos/2023384/pexels-photo-2023384.jpeg?auto=compress&cs=tinysrgb&dpr=1&fit=crop&h=200&w=280"
      },
      "liked": false,
      "alt": "Winking Black and Brown Puppy"
    },
    {
      "id": 45170,
      "width": 2400,
      "height": 1334,
      "url": "https://www.pexels.com/photo/assorted-color-kittens-45170/",
      "photographer": "Pixabay",
      "photographer_url": "https://www.pexels.com/@pixabay",
      "photographer_id": 2659,
      "avg_color": "#748B52",
      "src": {
        "original": "https://images.pexels.com/photos/45170/kittens-cat-cat-puppy-rush-45170.jpeg",
        "large2x": "https://images.pexels.com/photos/45170/kittens-cat-cat-puppy-rush-45170.jpeg?auto=compress&cs=tinysrgb&dpr=2&h=650&w=940",
        "large": "https://images.pexels.com/photos/45170/kittens-cat-cat-puppy-rush-45170.jpeg?auto=compress&cs=tinysrgb&h=650&w=940",
        "medium": "https://images.pexels.com/photos/45170/kittens-cat-cat-puppy-rush-45170.jpeg?auto=compress&cs=tinysrgb&h=350",
        "small": "https://images.pexels.com/photos/45170/kittens-cat-cat-puppy-rush-45170.jpeg?auto=compress&cs=tinysrgb&h=130",
        "portrait": "https://images.pexels.com/photos/45170/kittens-cat-cat-puppy-rush-45170.jpeg?auto=compress&cs=tinysrgb&fit=crop&h=1200&w=800",
        "landscape": "https://images.pexels.com/photos/45170/kittens-cat-cat-puppy-rush-45170.jpeg?auto=compress&cs=tinysrgb&fit=crop&h=627&w=1200",
        "tiny": "https://images.pexels.com/photos/45170/kittens-cat-cat-puppy-rush-45170.jpeg?auto=compress&cs=tinysrgb&dpr=1&fit=crop&h=200&w=280"
      },
      "liked": false,
      "alt": "Assorted Color Kittens"
    },
    {
      "id": 1108099,
      "width": 5184,
      "height": 3888,
      "url": "https://www.pexels.com/photo/two-yellow-labrador-retriever-puppies-1108099/",
      "photographer": "Chevanon Photography",
      "photographer_url": "https://www.pexels.com/@chevanon",
      "photographer_id": 93955,
      "avg_color": "#787A50",
      "src": {
        "original": "https://images.pexels.com/photos/1108099/pexels-photo-1108099.jpeg",
        "large2x": "https://images.pexels.com/photos/1108099/pexels-photo-1108099.jpeg?auto=compress&cs=tinysrgb&dpr=2&h=650&w=940",
        "large": "https://images.pexels.com/photos/1108099/pexels-photo-1108099.jpeg?auto=compress&cs=tinysrgb&h=650&w=940",
        "medium": "https://images.pexels.com/photos/1108099/pexels-photo-1108099.jpeg?auto=compress&cs=tinysrgb&h=350",
        "small": "https://images.pexels.com/photos/1108099/pexels-photo-1108099.jpeg?auto=compress&cs=tinysrgb&h=130",
        "portrait": "https://images.pexels.com/photos/1108099/pexels-photo-1108099.jpeg?auto=compress&cs=tinysrgb&fit=crop&h=1200&w=800",
        "landscape": "https://images.pexels.com/photos/1108099/pexels-photo-1108099.jpeg?auto=compress&cs=tinysrgb&fit=crop&h=627&w=1200",
        "tiny": "https://images.pexels.com/photos/1108099/pexels-photo-1108099.jpeg?auto=compress&cs=tinysrgb&dpr=1&fit=crop&h=200&w=280"
      },
      "liked": false,
      "alt": "Two Yellow Labrador Retriever Puppies"
    },
    {
      "id": 160846,
      "width": 4728,
      "height": 3264,
      "url": "https://www.pexels.com/photo/white-short-coated-dog-160846/",
      "photographer": "Pixabay",
      "photographer_url": "https://www.pexels.com/@pixabay",
      "photographer_id": 2659,
      "avg_color": "#899F87",
      "src": {
        "original": "https://images.pexels.com/photos/160846/french-bulldog-summer-smile-joy-160846.jpeg",
        "large2x": "https://images.pexels.com/photos/160846/french-bulldog-summer-smile-joy-160846.jpeg?auto=compress&cs=tinysrgb&dpr=2&h=650&w=940",
        "large": "https://images.pexels.com/photos/160846/french-bulldog-summer-smile-joy-160846.jpeg?auto=compress&cs=tinysrgb&h=650&w=940",
        "medium": "https://images.pexels.com/photos/160846/french-bulldog-summer-smile-joy-160846.jpeg?auto=compress&cs=tinysrgb&h=350",
        "small": "https://images.pexels.com/photos/160846/french-bulldog-summer-smile-joy-160846.jpeg?auto=compress&cs=tinysrgb&h=130",
        "portrait": "https://images.pexels.com/photos/160846/french-bulldog-summer-smile-joy-160846.jpeg?auto=compress&cs=tinysrgb&fit=crop&h=1200&w=800",
        "landscape": "https://images.pexels.com/photos/160846/french-bulldog-summer-smile-joy-160846.jpeg?auto=compress&cs=tinysrgb&fit=crop&h=627&w=1200",
        "tiny": "https://images.pexels.com/photos/160846/french-bulldog-summer-smile-joy-160846.jpeg?auto=compress&cs=tinysrgb&dpr=1&fit=crop&h=200&w=280"
      },
      "liked": false,
      "alt": "White Short Coated Dog"
    },
    {
      "id": 850602,
      "width": 5400,
      "height": 3600,
      "url": "https://www.pexels.com/photo/photography-of-three-dogs-looking-up-850602/",
      "photographer": "Nancy Guth",
      "photographer_url": "https://www.pexels.com/@nancy-guth-269359",
      "photographer_id": 269359,
      "avg_color": "#6E4F3B",
      "src": {
        "original": "https://images.pexels.com/photos/850602/pexels-photo-850602.jpeg",
        "large2x": "https://images.pexels.com/photos/850602/pexels-photo-850602.jpeg?auto=compress&cs=tinysrgb&dpr=2&h=650&w=940",
        "large": "https://images.pexels.com/photos/850602/pexels-photo-850602.jpeg?auto=compress&cs=tinysrgb&h=650&w=940",
        "medium": "https://images.pexels.com/photos/850602/pexels-photo-850602.jpeg?auto=compress&cs=tinysrgb&h=350",
        "small": "https://images.pexels.com/photos/850602/pexels-photo-850602.jpeg?auto=compress&cs=tinysrgb&h=130",
        "portrait": "https://images.pexels.com/photos/850602/pexels-photo-850602.jpeg?auto=compress&cs=tinysrgb&fit=crop&h=1200&w=800",
        "landscape": "https://images.pexels.com/photos/850602/pexels-photo-850602.jpeg?auto=compress&cs=tinysrgb&fit=crop&h=627&w=1200",
        "tiny": "https://images.pexels.com/photos/850602/pexels-photo-850602.jpeg?auto=compress&cs=tinysrgb&dpr=1&fit=crop&h=200&w=280"
      },
      "liked": false,
      "alt": "Photography of Three Dogs Looking Up"
    },
    {
      "id": 56733,
      "width": 4000,
      "height": 6016,
      "url": "https://www.pexels.com/photo/green-parrot-on-person-s-hand-56733/",
      "photographer": "Caio",
      "photographer_url": "https://www.pexels.com/@caio",
      "photographer_id": 7780,
      "avg_color": "#BEBCB3",
      "src": {
        "original": "https://images.pexels.com/photos/56733/pexels-photo-56733.jpeg",
        "large2x": "https://images.pexels.com/photos/56733/pexels-photo-56733.jpeg?auto=compress&cs=tinysrgb&dpr=2&h=650&w=940",
        "large": "https://images.pexels.com/photos/56733/pexels-photo-56733.jpeg?auto=compress&cs=tinysrgb&h=650&w=940",
        "medium": "https://images.pexels.com/photos/56733/pexels-photo-56733.jpeg?auto=compress&cs=tinysrgb&h=350",
        "small": "https://images.pexels.com/photos/56733/pexels-photo-56733.jpeg?auto=compress&cs=tinysrgb&h=130",
        "portrait": "https://images.pexels.com/photos/56733/pexels-photo-56733.jpeg?auto=compress&cs=tinysrgb&fit=crop&h=1200&w=800",
        "landscape": "https://images.pexels.com/photos/56733/pexels-photo-56733.jpeg?auto=compress&cs=tinysrgb&fit=crop&h=627&w=1200",
        "tiny": "https://images.pexels.com/photos/56733/pexels-photo-56733.jpeg?auto=compress&cs=tinysrgb&dpr=1&fit=crop&h=200&w=280"
      },
      "liked": false,
      "alt": "Green Parrot on Person's Hand"
    },
    {
      "id": 320014,
      "width": 1239,
      "height": 1800,
      "url": "https://www.pexels.com/photo/close-up-of-cat-320014/",
      "photographer": "Henda Watani",
      "photographer_url": "https://www.pexels.com/@wonda-stella",
      "photographer_id": 102277,
      "avg_color": "#3A3940",
      "src": {
        "original": "https://images.pexels.com/photos/320014/pexels-photo-320014.jpeg",
        "large2x": "https://images.pexels.com/photos/320014/pexels-photo-320014.jpeg?auto=compress&cs=tinysrgb&dpr=2&h=650&w=940",
        "large": "https://images.pexels.com/photos/320014/pexels-photo-320014.jpeg?auto=compress&cs=tinysrgb&h=650&w=940",
        "medium": "https://images.pexels.com/photos/320014/pexels-photo-320014.jpeg?auto=compress&cs=tinysrgb&h=350",
        "small": "https://images.pexels.com/photos/320014/pexels-photo-320014.jpeg?auto=compress&cs=tinysrgb&h=130",
        "portrait": "https://images.pexels.com/photos/320014/pexels-photo-320014.jpeg?auto=compress&cs=tinysrgb&fit=crop&h=1200&w=800",
        "landscape": "https://images.pexels.com/photos/320014/pexels-photo-320014.jpeg?auto=compress&cs=tinysrgb&fit=crop&h=627&w=1200",
        "tiny": "https://images.pexels.com/photos/320014/pexels-photo-320014.jpeg?auto=compress&cs=tinysrgb&dpr=1&fit=crop&h=200&w=280"
      },
      "liked": false,
      "alt": "Close-up of Cat"
    },
    {
      "id": 1629781,
      "width": 5472,
      "height": 3648,
      "url": "https://www.pexels.com/photo/close-up-photo-of-dog-wearing-sunglasses-1629781/",
      "photographer": "Ilargian Faus",
      "photographer_url": "https://www.pexels.com/@ilargian-faus-763704",
      "photographer_id": 763704,
      "avg_color": "#C4C6CD",
      "src": {
        "original": "https://images.pexels.com/photos/1629781/pexels-photo-1629781.jpeg",
        "large2x": "https://images.pexels.com/photos/1629781/pexels-photo-1629781.jpeg?auto=compress&cs=tinysrgb&dpr=2&h=650&w=940",
        "large": "https://images.pexels.com/photos/1629781/pexels-photo-1629781.jpeg?auto=compress&cs=tinysrgb&h=650&w=940",
        "medium": "https://images.pexels.com/photos/1629781/pexels-photo-1629781.jpeg?auto=compress&cs=tinysrgb&h=350",
        "small": "https://images.pexels.com/photos/1629781/pexels-photo-1629781.jpeg?auto=compress&cs=tinysrgb&h=130",
        "portrait": "https://images.pexels.com/photos/1629781/pexels-photo-1629781.jpeg?auto=compress&cs=tinysrgb&fit=crop&h=1200&w=800",
        "landscape": "https://images.pexels.com/photos/1629781/pexels-photo-1629781.jpeg?auto=compress&cs=tinysrgb&fit=crop&h=627&w=1200",
        "tiny": "https://images.pexels.com/photos/1629781/pexels-photo-1629781.jpeg?auto=compress&cs=tinysrgb&dpr=1&fit=crop&h=200&w=280"
      },
      "liked": false,
      "alt": "Close-Up Photo of Dog Wearing Sunglasses"
    },
    {
      "id": 1643456,
      "width": 5647,
      "height": 3752,
      "url": "https://www.pexels.com/photo/close-up-photo-of-a-hand-holding-three-white-kittens-1643456/",
      "photographer": "Peng Louis",
      "photographer_url": "https://www.pexels.com/@peng-louis-587527",
      "photographer_id": 587527,
      "avg_color": "#676B73",
      "src": {
        "original": "https://images.pexels.com/photos/1643456/pexels-photo-1643456.jpeg",
        "large2x": "https://images.pexels.com/photos/1643456/pexels-photo-1643456.jpeg?auto=compress&cs=tinysrgb&dpr=2&h=650&w=940",
        "large": "https://images.pexels.com/photos/1643456/pexels-photo-1643456.jpeg?auto=compress&cs=tinysrgb&h=650&w=940",
        "medium": "https://images.pexels.com/photos/1643456/pexels-photo-1643456.jpeg?auto=compress&cs=tinysrgb&h=350",
        "small": "https://images.pexels.com/photos/1643456/pexels-photo-1643456.jpeg?auto=compress&cs=tinysrgb&h=130",
        "portrait": "https://images.pexels.com/photos/1643456/pexels-photo-1643456.jpeg?auto=compress&cs=tinysrgb&fit=crop&h=1200&w=800",
        "landscape": "https://images.pexels.com/photos/1643456/pexels-photo-1643456.jpeg?auto=compress&cs=tinysrgb&fit=crop&h=627&w=1200",
        "tiny": "https://images.pexels.com/photos/1643456/pexels-photo-1643456.jpeg?auto=compress&cs=tinysrgb&dpr=1&fit=crop&h=200&w=280"
      },
      "liked": false,
      "alt": "Close-Up Photo of a Hand Holding Three White Kittens"
    },
    {
      "id": 1364729,
      "width": 3543,
      "height": 4516,
      "url": "https://www.pexels.com/photo/close-up-photography-of-two-dogs-1364729/",
      "photographer": "bin Ziegler",
      "photographer_url": "https://www.pexels.com/@bin-ziegler-588438",
      "photographer_id": 588438,
      "avg_color": "#757681",
      "src": {
        "original": "https://images.pexels.com/photos/1364729/pexels-photo-1364729.jpeg",
        "large2x": "https://images.pexels.com/photos/1364729/pexels-photo-1364729.jpeg?auto=compress&cs=tinysrgb&dpr=2&h=650&w=940",
        "large": "https://images.pexels.com/photos/1364729/pexels-photo-1364729.jpeg?auto=compress&cs=tinysrgb&h=650&w=940",
        "medium": "https://images.pexels.com/photos/1364729/pexels-photo-1364729.jpeg?auto=compress&cs=tinysrgb&h=350",
        "small": "https://images.pexels.com/photos/1364729/pexels-photo-1364729.jpeg?auto=compress&cs=tinysrgb&h=130",
        "portrait": "https://images.pexels.com/photos/1364729/pexels-photo-1364729.jpeg?auto=compress&cs=tinysrgb&fit=crop&h=1200&w=800",
        "landscape": "https://images.pexels.com/photos/1364729/pexels-photo-1364729.jpeg?auto=compress&cs=tinysrgb&fit=crop&h=627&w=1200",
        "tiny": "https://images.pexels.com/photos/1364729/pexels-photo-1364729.jpeg?auto=compress&cs=tinysrgb&dpr=1&fit=crop&h=200&w=280"
      },
      "liked": false,
      "alt": "Close-Up Photography of Two Dogs"
    },
    {
      "id": 1938123,
      "width": 4850,
      "height": 3648,
      "url": "https://www.pexels.com/photo/selective-focus-photo-of-three-brindle-puppies-inside-brown-woven-basket-1938123/",
      "photographer": "Helena Lopes",
      "photographer_url": "https://www.pexels.com/@wildlittlethingsphoto",
      "photographer_id": 210984,
      "avg_color": "#5E4B3B",
      "src": {
        "original": "https://images.pexels.com/photos/1938123/pexels-photo-1938123.jpeg",
        "large2x": "https://images.pexels.com/photos/1938123/pexels-photo-1938123.jpeg?auto=compress&cs=tinysrgb&dpr=2&h=650&w=940",
        "large": "https://images.pexels.com/photos/1938123/pexels-photo-1938123.jpeg?auto=compress&cs=tinysrgb&h=650&w=940",
        "medium": "https://images.pexels.com/photos/1938123/pexels-photo-1938123.jpeg?auto=compress&cs=tinysrgb&h=350",
        "small": "https://images.pexels.com/photos/1938123/pexels-photo-1938123.jpeg?auto=compress&cs=tinysrgb&h=130",
        "portrait": "https://images.pexels.com/photos/1938123/pexels-photo-1938123.jpeg?auto=compress&cs=tinysrgb&fit=crop&h=1200&w=800",
        "landscape": "https://images.pexels.com/photos/1938123/pexels-photo-1938123.jpeg?auto=compress&cs=tinysrgb&fit=crop&h=627&w=1200",
        "tiny": "https://images.pexels.com/photos/1938123/pexels-photo-1938123.jpeg?auto=compress&cs=tinysrgb&dpr=1&fit=crop&h=200&w=280"
      },
      "liked": false,
      "alt": "Selective Focus Photo of Three Brindle Puppies Inside Brown Woven Basket"
    },
    {
      "id": 96428,
      "width": 4896,
      "height": 3264,
      "url": "https://www.pexels.com/photo/black-and-white-tabby-cats-sleeping-on-red-textile-96428/",
      "photographer": "Francesco Ungaro",
      "photographer_url": "https://www.pexels.com/@francesco-ungaro",
      "photographer_id": 21273,
      "avg_color": "#4E3941",
      "src": {
        "original": "https://images.pexels.com/photos/96428/pexels-photo-96428.jpeg",
        "large2x": "https://images.pexels.com/photos/96428/pexels-photo-96428.jpeg?auto=compress&cs=tinysrgb&dpr=2&h=650&w=940",
        "large": "https://images.pexels.com/photos/96428/pexels-photo-96428.jpeg?auto=compress&cs=tinysrgb&h=650&w=940",
        "medium": "https://images.pexels.com/photos/96428/pexels-photo-96428.jpeg?auto=compress&cs=tinysrgb&h=350",
        "small": "https://images.pexels.com/photos/96428/pexels-photo-96428.jpeg?auto=compress&cs=tinysrgb&h=130",
        "portrait": "https://images.pexels.com/photos/96428/pexels-photo-96428.jpeg?auto=compress&cs=tinysrgb&fit=crop&h=1200&w=800",
        "landscape": "https://images.pexels.com/photos/96428/pexels-photo-96428.jpeg?auto=compress&cs=tinysrgb&fit=crop&h=627&w=1200",
        "tiny": "https://images.pexels.com/photos/96428/pexels-photo-96428.jpeg?auto=compress&cs=tinysrgb&dpr=1&fit=crop&h=200&w=280"
      },
      "liked": false,
      "alt": "Black and White Tabby Cats Sleeping on Red Textile"
    },
    {
      "id": 1741205,
      "width": 3744,
      "height": 5616,
      "url": "https://www.pexels.com/photo/photo-of-orange-tabby-cat-with-red-handkerchief-1741205/",
      "photographer": "Lina Kivaka",
      "photographer_url": "https://www.pexels.com/@lina",
      "photographer_id": 593836,
      "avg_color": "#9D8E8B",
      "src": {
        "original": "https://images.pexels.com/photos/1741205/pexels-photo-1741205.jpeg",
        "large2x": "https://images.pexels.com/photos/1741205/pexels-photo-1741205.jpeg?auto=compress&cs=tinysrgb&dpr=2&h=650&w=940",
        "large": "https://images.pexels.com/photos/1741205/pexels-photo-1741205.jpeg?auto=compress&cs=tinysrgb&h=650&w=940",
        "medium": "https://images.pexels.com/photos/1741205/pexels-photo-1741205.jpeg?auto=compress&cs=tinysrgb&h=350",
        "small": "https://images.pexels.com/photos/1741205/pexels-photo-1741205.jpeg?auto=compress&cs=tinysrgb&h=130",
        "portrait": "https://images.pexels.com/photos/1741205/pexels-photo-1741205.jpeg?auto=compress&cs=tinysrgb&fit=crop&h=1200&w=800",
        "landscape": "https://images.pexels.com/photos/1741205/pexels-photo-1741205.jpeg?auto=compress&cs=tinysrgb&fit=crop&h=627&w=1200",
        "tiny": "https://images.pexels.com/photos/1741205/pexels-photo-1741205.jpeg?auto=compress&cs=tinysrgb&dpr=1&fit=crop&h=200&w=280"
      },
      "liked": false,
      "alt": "Photo of Orange Tabby Cat With Red Handkerchief "
    },
    {
      "id": 3628100,
      "width": 4592,
      "height": 3056,
      "url": "https://www.pexels.com/photo/black-and-white-short-coated-dogs-3628100/",
      "photographer": "Edgar Daniel Hernández Cervantes",
      "photographer_url": "https://www.pexels.com/@edd1egalaxy",
      "photographer_id": 727497,
      "avg_color": "#687A92",
      "src": {
        "original": "https://images.pexels.com/photos/3628100/pexels-photo-3628100.jpeg",
        "large2x": "https://images.pexels.com/photos/3628100/pexels-photo-3628100.jpeg?auto=compress&cs=tinysrgb&dpr=2&h=650&w=940",
        "large": "https://images.pexels.com/photos/3628100/pexels-photo-3628100.jpeg?auto=compress&cs=tinysrgb&h=650&w=940",
        "medium": "https://images.pexels.com/photos/3628100/pexels-photo-3628100.jpeg?auto=compress&cs=tinysrgb&h=350",
        "small": "https://images.pexels.com/photos/3628100/pexels-photo-3628100.jpeg?auto=compress&cs=tinysrgb&h=130",
        "portrait": "https://images.pexels.com/photos/3628100/pexels-photo-3628100.jpeg?auto=compress&cs=tinysrgb&fit=crop&h=1200&w=800",
        "landscape": "https://images.pexels.com/photos/3628100/pexels-photo-3628100.jpeg?auto=compress&cs=tinysrgb&fit=crop&h=627&w=1200",
        "tiny": "https://images.pexels.com/photos/3628100/pexels-photo-3628100.jpeg?auto=compress&cs=tinysrgb&dpr=1&fit=crop&h=200&w=280"
      },
      "liked": false,
      "alt": "Black And White Short Coated Dogs "
    }
  ],
  "total_results": 8000,
  "next_page": "https://api.pexels.com/v1/search/?page=2&per_page=15&query=pets"
}